<svg xmlns="http://www.w3.org/2000/svg" viewBox="0 0 16.77 10.84">
  <title>back-to-top</title>
  <g id="5710e59b-3710-4ee6-83d5-09c1f852ec6f" data-name="Layer 2">
    <g id="c642f9c9-a261-42b5-a390-b4d73d83cfdf" data-name="Layer 1">
      <g>
        <path d="M15.93,10.84,8.34,3.33l-7.5,7.5L0,10,8.34,1.7,16.77,10Z" style="fill: #fff"/>
        <rect width="16.77" height="1.19" style="fill: #fff"/>
      </g>
    </g>
  </g>
</svg>
