<svg xmlns="http://www.w3.org/2000/svg" viewBox="0 0 17.83 15">
  <g id="71019811-b254-4705-9f0b-9b7517d95c15" data-name="Layer 2">
    <g id="806596e7-3020-4aa9-8ecc-d3b9d02475d0" data-name="DESIGN">
      <g>
        <path d="M3.89,8.23v6.11a.66.66,0,0,0,1.32,0V8.23a.66.66,0,0,0-1.32,0Z" style="fill: #fff"/>
        <path d="M1.83,15H3.28V7.75s0-.07,0-.1a5.63,5.63,0,1,1,11.25,0,.78.78,0,0,0,0,.14V15H16a1.86,1.86,0,0,0,1.83-1.89V9.33a1.89,1.89,0,0,0-1.32-1.82,7.6,7.6,0,0,0-15.19,0A1.88,1.88,0,0,0,0,9.33v3.78A1.86,1.86,0,0,0,1.83,15Z" style="fill: #fff"/>
        <path d="M12.62,8.23v6.11a.66.66,0,0,0,1.32,0V8.23a.66.66,0,0,0-1.32,0Z" style="fill: #fff"/>
      </g>
    </g>
  </g>
</svg>
