<svg xmlns="http://www.w3.org/2000/svg" xmlns:xlink="http://www.w3.org/1999/xlink" viewBox="0 0 65 65">
  <defs>
    <radialGradient id="f7132597-cfc6-4652-b49b-32fd4cb147af" cx="21.05" cy="39.76" r="32.1" gradientTransform="matrix(1.01, 0, 0, -1.01, 11.18, 72.76)" gradientUnits="userSpaceOnUse">
      <stop offset="0.7" stop-opacity="0.2"/>
      <stop offset="1" stop-opacity="0"/>
    </radialGradient>
  </defs>
  <title>loader</title>
  <g id="758d8e35-246e-4200-b978-f508150c3d53" data-name="Layer 2">
    <g id="f297c185-d8bd-4b97-8b9a-62e0d7013847" data-name="Layer 1">
      <rect width="65" height="65" style="fill: url(#f7132597-cfc6-4652-b49b-32fd4cb147af)"/>
      <path d="M50.9,14.1a25.83,25.83,0,0,0-36.8,0,25.83,25.83,0,0,0,0,36.8A26,26,0,0,0,58.5,32.5a25,25,0,0,0-7.6-18.4Zm-1.6,1.6a23.43,23.43,0,0,1,6.9,16.8H50.8A18.31,18.31,0,0,0,32.5,14.2a10.87,10.87,0,0,0-1.8.1V8.9c.6,0,1.2-.1,1.8-.1a24,24,0,0,1,16.8,6.9ZM32.5,48.5a16,16,0,1,1,16-16,16,16,0,0,1-16,16Z" style="fill: #8d0c37"/>
    </g>
  </g>
</svg>
