<svg xmlns="http://www.w3.org/2000/svg" viewBox="0 0 62.72 89.39">
  <title>play-btn</title>
  <g id="99ca0fd5-2f51-4f54-8770-db40df1da24f" data-name="Layer 2">
    <g id="8dbbdff4-a226-42f4-9b9c-9c0c6a9cd50b" data-name="Layer 1">
      <path d="M1,87.45V1.94L61,44.7Z" style="fill: none;stroke: #fff;stroke-miterlimit: 10;stroke-width: 2px"/>
    </g>
  </g>
</svg>
